{
    "type": "FeatureCollection",
    "features": [
        {
            "type": "Feature",
            "id": 48,
            "properties": {
                "id": 48,
                "title": "Greenhead Park"
            },
            "geometry": {
                "type": "Point",
                "coordinates": [
                    -1.79473,
                    53.6479
                ]
            }
        },
        {
            "type": "Feature",
            "id": 49,
            "properties": {
                "id": 49,
                "title": "HRI"
            },
            "geometry": {
                "type": "Point",
                "coordinates": [
                    -1.81592,
                    53.654556
                ]
            }
        },
        {
            "type": "Feature",
            "id": 50,
            "properties": {
                "id": 50,
                "title": "Railway Station"
            },
            "geometry": {
                "type": "Point",
                "coordinates": [
                    -1.78472,
                    53.648529
                ]
            }
        },
        {
            "type": "Feature",
            "id": 51,
            "properties": {
                "id": 51,
                "title": "Church"
            },
            "geometry": {
                "type": "Point",
                "coordinates": [
                    -1.78089,
                    53.647186
                ]
            }
        },
        {
            "type": "Feature",
            "id": 52,
            "properties": {
                "id": 52,
                "title": "Huddersfield Open Market"
            },
            "geometry": {
                "type": "Point",
                "coordinates": [
                    -1.782124,
                    53.649673
                ]
            }
        },
        {
            "type": "Feature",
            "id": 53,
            "properties": {
                "id": 53,
                "title": "Hud Uni Library"
            },
            "geometry": {
                "type": "Point",
                "coordinates": [
                    -1.776239,
                    53.643929
                ]
            }
        },
        {
            "type": "Feature",
            "id": 54,
            "properties": {
                "id": 54,
                "title": "Kingsgate Shopping Centre"
            },
            "geometry": {
                "type": "Point",
                "coordinates": [
                    -1.779404,
                    53.646103
                ]
            }
        },
        {
            "type": "Feature",
            "id": 55,
            "properties": {
                "id": 55,
                "title": "Bus Station"
            },
            "geometry": {
                "type": "Point",
                "coordinates": [
                    -1.786485,
                    53.645679
                ]
            }
        },
        {
            "type": "Feature",
            "id": 204,
            "properties": {
                "id": 204,
                "title": "Random picture "
            },
            "geometry": {
                "type": "Point",
                "coordinates": [
                    -1.777124,
                    53.643139
                ]
            }
        },
        {
            "type": "Feature",
            "id": 205,
            "properties": {
                "id": 205,
                "title": "asd"
            },
            "geometry": {
                "type": "Point",
                "coordinates": [
                    -1.78653,
                    53.645554
                ]
            }
        }
    ]
}